{
  "manifest_version": 3,
  "name": "Mue",
  "description": "Fast, open and free-to-use new tab page for modern browsers.",
  "version": "5.0.1",
  "browser_action": {
    "default_icon": "icons/128x128.png"
  },
  "chrome_url_overrides": {
    "newtab": "index.html"
  },
  "chrome_settings_overrides": {
    "homepage": "index.html"
  }
}
